﻿State: NULL,City: NULL,No_CompanyInfo,No_FinancialInfo
'AOF,'AOF,'5280,'4448
'43E,'43E,'5090,'5263
'42S,'42S,'5187,'5PI
'42U,'42U,'BVA,'03007
'5TW,'5TW,'5109,'7126
'OAJ,'OAJ,'0150PA,'0218
'41T,'41T,'0095,'7189
'1J7,'1J7,'5176,'7119
'5EL,'5EL,'5111,'41A
'1H8,'1H8,'0170,'5238
'SJY,'SJY,'5227,'5886
'5PI,'5PI,'5172,'QNS
'1F0,'1F0,'5123,'5584
'5CP,'5CP,'5156,'6025
'URR,'URR,'0167,'5959
'QNS,'QNS,'5110,
'41A,'41A,'5121,
'40N,'40N,'5235SS,
,,'8532,
,,'5212,
