﻿No_CompanyInfo,No_FinancialInfo
MARC,PCP
GLOPP,SMDC
SMC2E,ABC
GTPPA,SPH
ATNB,PIP
MM,LRI
TECB2,ALPHA
FGENG,MLCO
8990P,RWM
CROWN,
PNX3A,
BCB,
FPHPC,
SMC2G,
GTPPB,
DDPR,
PNX3B,
MAHB,
LCB,
OPMB,
SMC2F,
CAB,
PRF2B,
AREIT,
FJPB,
CPGP,
MAB,
ACPB1,
SMC2I,
SFI,
AB,
ALCPB,
SMC2H,
SGI,
SMC2J,
CEI,
