﻿HQ Location: NULL,No_CompanyInfo,No_FinancialInfo
NDN,NSS,VTJ
NDX,E12,PIA
NHA,LDW,ABS
MSN,ICC,GAB
MDG,MQN,KOS
MWG,USD,ANV
NAF,BMD,BTW
NAV,TBT,ICT
NBB,PDV,VMC
NGC,BQB,PLX
NHC,NDC,PGN
NHP,SPA,CKG
NCT,TVA,EBA
,SCO,TAR
,ATB,ALT
,TS3,GVR
,XHC,HPM
,BLW,IVS
,PTH,SZC
,QPH,DAG
,NHT,TCS
,SCI,AGG
,LMI,TN1
,SPC,BCF
,HFX,THS
,PTG,SHE
,NSG,HDA
,IHK,VCC
,VSN,
,BSP,
,SSU,
,IKH,
,SPP,
,SDV,
,SWC,
,SCY,
,NWT,
,QTP,
,G36,
,V15,
,DCT,
,CCA,
,PFL,
,SD8,
,HCS,
,DNS,
,MTV,
,DOP,
,MEC,
,LTC,
,MDF,
,VPA,
,VNY,
,SBS,
,CPW,
,HSP,
,DKC,
,CKA,
,QCC,
,VTP,
,BAB,
,CDG,
,IDP,
,LTG,
,HNE,
,VNP,
,PXM,
,VEA,
,PID,
,CDO,
,DNL,
,SBL,
,PXL,
,HAC,
,SB1,
,GTT,
,YTC,
,DVN,
,SBR,
,VTD,
,VNX,
,MDA,
,GVT,
,MXC,
,HDO,
,DSP,
,VLG,
,CT5,
,BHT,
,VTM,
,CAM,
,IRC,
,KHA,
,SON,
,PPI,
,CCH,
,HNI,
,KTB,
,BTH,
,HC1,
,VIH,
,BDG,
,PNT,
,MKP,
,KLB,
,USC,
,DOC,
,CQT,
,PJS,
,SDD,
,LCW,
,ATA,
,VES,
,PIS,
,NNQ,
,CPI,
,HLG,
,DDM,
,VXP,
,KAC,
,LBC,
,FHN,
,SIV,
,RCC,
,BTN,
,VLC,
,VSE,
,AGP,
,AC4,
,ASD,
,VPC,
,HVA,
,FCS,
,TCJ,
,BLI,
,LKW,
,TNS,
,VGI,
,DNE,
,VCW,
,HNP,
,CYC,
,QNS,
,I10,
,TOT,
,HRB,
,AMP,
,HD6,
,AQN,
,MTP,
,HNF,
,NLS,
,CLG,
,SD7,
,VST,
,BNW,
,TTP,
,TTD,
,S72,
,KHD,
,FBC,
,EIN,
,SVH,
,AFX,
,BSL,
,HU4,
,TL4,
,PCN,
,BMG,
,VMG,
,XLV,
,PTX,
,KHB,
,TSD,
,TRT,
,C4G,
,SAL,
,AG1,
,DCG,
,DCF,
,KTC,
,VGG,
,DTB,
,DM7,
,PTE,
,BSD,
,RCD,
,PEQ,
,HPD,
,TVP,
,RAT,
,LM3,
,TUG,
,HTK,
,NBR,
,BBM,
,BEL,
,HCI,
,TNP,
,CKD,
,MTG,
,T12,
,CHC,
,VHF,
,SPB,
,CBC,
,C36,
,KSH,
,TW3,
,SCA,
,FT1,
,SKN,
,HGW,
,VBH,
,NAC,
,TKA,
,VHH,
,DX2,
,FOX,
,HNM,
,PTK,
,VGV,
,HFC,
,STW,
,MTC,
,MEF,
,BTG,
,HNT,
,HU6,
,UEM,
,VCE,
,HPT,
,PIV,
,AVF,
,PHH,
,VCX,
,TIS,
,HPU,
,CMK,
,YBC,
,CMP,
,BBT,
,SJG,
,AGF,
,AVC,
,DNT,
,KLM,
,IN4,
,DRI,
,BUD,
,AIC,
,BHV,
,TTN,
,MTS,
,SSN,
,SAP,
,CFM,
,ANT,
,NJC,
,HAF,
,AMS,
,DWS,
,VPW,
,HAB,
,TID,
,VTK,
,IBD,
,CCR,
,BCB,
,NNG,
,HNA,
,VTX,
,PMW,
,MHY,
,PNG,
,NDW,
,HEP,
,BSG,
,APT,
,TLP,
,SRB,
,EIC,
,L45,
,GHC,
,PRO,
,PVM,
,DFC,
,SKH,
,FDG,
,PVH,
,BMV,
,G20,
,HDP,
,CSI,
,DBM,
,SUM,
,DCR,
,DPH,
,RHN,
,PND,
,DCI,
,VSG,
,SVG,
,PAS,
,THR,
,MPC,
,VSP,
,NBT,
,PBT,
,TV1,
,TQN,
,MTB,
,AGX,
,ACE,
,GTS,
,HRT,
,VIM,
,CPA,
,CDR,
,HPH,
,L12,
,PAI,
,TQW,
,VNA,
,TMG,
,HTG,
,DAR,
,DTC,
,CCP,
,BGW,
,LGM,
,SDY,
,HJC,
,CAT,
,POB,
,HDW,
,CTW,
,M10,
,GER,
,CTA,
,SHC,
,HC3,
,X26,
,DP2,
,DCH,
,VFR,
,SSG,
,HBD,
,STV,
,XMD,
,PLO,
,AUM,
,BVG,
,CAB,
,TOP,
,PDT,
,LAW,
,IME,
,SIG,
,MCI,
,V11,
,IPA,
,VDB,
,EVF,
,TA6,
,SIP,
,VVN,
,ILA,
,HAN,
,VTA,
,MRF,
,SAS,
,ORS,
,TSJ,
,HHR,
,VTI,
,FIC,
,EMS,
,HEJ,
,VAV,
,HKP,
,TVN,
,VKP,
,SVL,
,OIL,
,FHS,
,TIE,
,CCT,
,CPH,
,ABR,
,BSR,
,VCT,
,VSF,
,QNT,
,MCM,
,VHI,
,SD3,
,SDK,
,BRR,
,DTG,
,BTV,
,LWS,
,S12,
,TNM,
,TAG,
,BT1,
,PGB,
,RGC,
,LG9,
,DPP,
,CIP,
,NTC,
,CE1,
,B82,
,XMC,
,NHV,
,DXD,
,VHG,
,PWS,
,DHN,
,TAW,
,THW,
,DRG,
,VXT,
,BDT,
,HPW,
,TRS,
,SBH,
,LIC,
,KCB,
,VNI,
,KSE,
,TGP,
,HPP,
,HTU,
,DDN,
,FRM,
,STH,
,DLT,
,MEG,
,VOC,
,SHG,
,ABI,
,SPD,
,GCB,
,CHS,
,NAS,
,HLT,
,EMG,
,FTI,
,CGV,
,CMF,
,PSP,
,H11,
,VET,
,NSL,
,HNB,
,TLT,
,HTR,
,TDS,
,ILS,
,EPH,
,HMG,
,TCI,
,IST,
,DTI,
,MBN,
,FRC,
,XDH,
,BVB,
,PPH,
,CFC,
,VCA,
,HPI,
,NOS,
,SDJ,
,VIN,
,NED,
,SEA,
,DTV,
,BHG,
,HDM,
,PVA,
,CC1,
,PTV,
,HNR,
,STL,
,TTG,
,TNB,
,SDB,
,ALV,
,EAD,
,BKH,
,HLA,
,NTT,
,A32,
,LNC,
,DVC,
,L44,
,NAU,
,VGT,
,MGC,
,DAC,
,VCP,
,LAI,
,PLA,
,KSV,
,HTM,
,NQT,
,ABC,
,KHW,
,HD2,
,NBE,
,PSB,
,PGV,
,BHC,
,PVV,
,HLR,
,MSR,
,DLR,
,EPC,
,MQB,
,MCT,
,MTM,
,MDT,
,VLB,
,KTL,
,HFB,
,THU,
,PSG,
,SCJ,
,MLC,
,SSF,
,VTR,
,CEG,
,ITS,
,VC5,
,C22,
,ONW,
,DDH,
,RBC,
,VGL,
,XPH,
,VIR,
,UPH,
,HEC,
,MVC,
,BSQ,
,VWS,
,TVH,
,MND,
,PXA,
,SHX,
,DSC,
,ICI,
,SNC,
,NQN,
,SDP,
,CBI,
,PTO,
,NCS,
,ADP,
,VEF,
,ILC,
,WTC,
,CT6,
,CVH,
,CDH,
,LMC,
,MES,
,KIP,
,POS,
,VMA,
,BSA,
,C12,
,MGG,
,SKV,
,GLW,
,STS,
,DTP,
,HKC,
,HBW,
,PVO,
,UMC,
,PVR,
,DCS,
,STU,
,HSA,
,MA1,
,HEM,
,GGG,
,HHN,
,YRC,
,X77,
,VLF,
,TR1,
,ICN,
,DHB,
,IFS,
,GND,
,CNN,
,DDV,
,SEP,
,BOT,
,IFC,
,BRS,
,HLB,
,LLM,
,SGS,
,KHL,
,GTK,
,QLD,
,UCT,
,BMS,
,DKH,
,CAD,
,UDL,
,NDF,
,MLS,
,DAP,
,SAC,
,VBB,
,EFI,
,BPW,
,VLP,
,BMN,
,NTR,
,PYU,
,APF,
,PWA,
,NVP,
,PCF,
,STT,
,FCC,
,BTB,
,CCV,
,TAN,
,VTG,
,SDE,
,NTW,
,ICF,
,TBD,
,BDW,
,HUX,
,VBG,
,KCE,
,MTH,
,SID,
,CMW,
,CH5,
,TEC,
,SGB,
,KBE,
,SOV,
,TLI,
,MML,
,DNW,
,CI5,
,THN,
,SD1,
,PTT,
,PCC,
,ACS,
,CNT,
,SCC,
,TTV,
,BVN,
,PMT,
,CTN,
,DBH,
,CMD,
,DNN,
,PVY,
,QLT,
,DAS,
,SZE,
,MFS,
,RLC,
,DGT,
,HTW,
,VHD,
,FSO,
,TCW,
,JOS,
,DC1,
,NAW,
,PVP,
,IPH,
,HGT,
,HSM,
,VDN,
,QSP,
,CID,
,GLC,
,AAS,
,HWS,
,TOW,
,S27,
,VNB,
,VEC,
,NCP,
,TAP,
,TVU,
,EME,
,SGO,
,WSB,
,ISH,
,DHD,
,SNZ,
,HSI,
,BMF,
,HHV,
,MHP,
,PKR,
,MNB,
,NTB,
,DNA,
,BAL,
,L63,
,MTL,
,CGL,
,APL,
,NS3,
,VLW,
,HAV,
,MTA,
,TH1,
,NNB,
,DSS,
,BT6,
,ABB,
,HFS,
,CDP,
,NS2,
,MVN,
,POV,
,ATD,
,TS5,
,VIW,
,DXL,
,MDN,
,CMT,
,HIG,
,PHS,
,QBR,
,BLN,
,HMS,
,CFV,
,NNT,
,CBS,
,CMN,
,BMJ,
,TA3,
,VQC,
,DND,
,GQN,
,SQC,
,QNW,
,DT4,
,VFC,
,C71,
,SBM,
,QNU,
,DVW,
,BSH,
,DP1,
,HBH,
,CC4,
,ND2,
,MH3,
,SPH,
,PEG,
,BHA,
,HPB,
,SPV,
,SDX,
,NUE,
,PNP,
,MIE,
,HD8,
,GSM,
,VNH,
,TB8,
,NMK,
,HLE,
,DSG,
,DTE,
,TPS,
,BTR,
,LMH,
,CEN,
,HLS,
,BHP,
,SRT,
,TDF,
,CMI,
,C21,
,VGR,
,TDB,
,DNR,
,PBC,
,CTR,
,BCP,
,BHK,
,DUS,
,KGM,
,HTE,
,VNG,
,ISG,
,RTB,
,PMJ,
,MC3,
,VDT,
,RTS,
,UDJ,
,MPY,
,SGP,
,BWS,
,FOC,
,LQN,
,VDM,
,PCM,
,HUG,
,PSN,
,TTS,
,NAB,
,BIO,
,CXH,
,DBW,
,SP2,
,CCM,
,BBH,
,GTH,
,VTE,
,VPR,
,PX1,
,CKH,
,TEL,
,CNC,
,DLD,
,CLX,
,ASA,
,TNW,
,PLE,
,LCC,
,TCK,
,FBA,
,DPD,
,HAM,
,VRG,
,SBD,
,HCB,
,GTD,
,NDT,
,VW3,
,TMW,
,HIZ,
,QHW,
,UPC,
,BLT,
,HES,
,ACV,
,NQB,
,PEC,
,VKD,
,MCH,
,DNH,
,NTF,
,MIC,
,FGL,
,TVG,
,PXC,
,HGC,
,CT3,
,TVW,
,HND,
,SJM,
,E29,
,PQN,
,TSG,
,TVM,
,BTU,
,PRT,
,PSL,
,VFS,
,RTH,
,NDP,
,BTD,
,S96,
,SDH,
,THP,
,PTP,
,DNB,
,MVY,
,DSV,
,CEC,
,CQN,
,BWA,
