﻿CompanyName,Stock Symbol,GIMAP,EXTERNAL_NAME,MARCHER_1_CANDIDATE_1,MATCHER_2_CANDIDATE_1,MATCHER_2_CANDIDATE_2,MATCHER_2_CANDIDATE_3,Listed
8TELECOM INTERNATIONAL HOLDINGS CO LTD,AZG,1.0,,,,,,0.0
PRUDENTIAL PLC,K6S,1.0,,,,,,0.0
CEI LIMITED,AVV,1.0,,,,,,0.0
NAM CHEONG LIMITED,N4E,1.0,,,,,,0.0
HI-P INTERNATIONAL LIMITED,H17,1.0,,,,,,0.0
Eurosports Global Ltd.,5G1,1.0,,,,,,0.0
DYNAMIC COLOURS LIMITED,D6U,1.0,,,,,,0.0
BUND CENTER INVESTMENT LTD,BTE,1.0,,,,,,0.0
FIRST SPONSOR GROUP LIMITED,ADN,1.0,,,,,,0.0
LAFE CORPORATION LIMITED,AYB,1.0,,,,,,0.0
MMP RESOURCES LIMITED,F3V,1.0,,,,,,0.0
CITIC ENVIROTECH LTD,CEE,1.0,,,,,,0.0
KRISENERGY LTD.,SK3,1.0,,,,,,0.0
GL LIMITED,B16,1.0,,,,,,0.0
CITICODE LTD.,5FH,1.0,,,,,,0.0
DEL MONTE PACIFIC LIMITED,D03,1.0,,,,,,0.0
GENTING SINGAPORE PLC,G13,1.0,,,,,,0.0
OKH GLOBAL LTD.,S3N,1.0,,,,,,0.0
Sevak Ltd.,BAI,1.0,,,,,,0.0
GOLDEN AGRI-RESOURCES LTD,E5H,1.0,,,,,,0.0
MEWAH INTERNATIONAL INC.,MV4,1.0,,,,,,0.0
ANAN INTERNATIONAL LIMITED,Y35,1.0,,,,,,0.0
SUNNINGDALE TECH LTD,BHQ,1.0,,,,,,0.0
SUNVIC CHEMICAL HOLDINGS LTD,A7S,1.0,,,,,,0.0
CWX GLOBAL LIMITED,594,1.0,,,,,,0.0
KIM HENG OFFSHORE&MARINE HOLDINGS LTD.,5G2,1.0,,,,,,0.0
LIONGOLD CORP LTD,A78,1.0,,,,,,0.0
UNITED INDUSTRIAL CORP LTD,U06,1.0,,,,,,0.0
Rich Capital Holdings Limited,5G4,1.0,,,,,,0.0
SINGAPORE EDEVELOPMENT LTD,40V,1.0,,,,,,0.0
STARLAND HOLDINGS LIMITED,5UA,1.0,,,,,,0.0
SWEE HONG LIMITED,QF6,1.0,,,,,,0.0
ST ENGINEERING LTD (former SINGAPORE TECH ENGINEERING LTD),S63,1.0,,,,,,0.0
CHINESE GLOBAL INVESTORS GRP,5CJ,1.0,,,,,,0.0
KLW HOLDINGS LTD,504,1.0,,,,,,0.0
WINMARK INVESTMENT HOLDINGS LTD,40R,1.0,,,,,,0.0
MEDTECS INTERNATIONAL CORP LTD,546,1.0,,,,,,0.0
INTERNATIONAL PRESS SOFTCOM,571,1.0,,,,,,0.0
THE TRENDLINES GROUP LTD.,42T,1.0,,,,,,0.0
ZICO HOLDINGS INC.,40W,1.0,,,,,,0.0
WINAS LIMITED,5CN,1.0,,,,,,0.0
TECKWAH INDUSTRIAL CORP LTD,561,1.0,,,,,,0.0
THE STRAITS TRADING CO. LTD,S20,1.0,,,,,,0.0
ALPHA ENERGY HOLDINGS LIMITED,5TS,1.0,,,,,,0.0
IEV HOLDINGS LIMITED,5TN,1.0,,,,,,0.0
NEO GROUP LIMITED,5UJ,1.0,,,,,,0.0
SK JEWELLERY GROUP LIMITED,42G,1.0,,,,,,0.0
TRANSCORP HOLDINGS LIMITED,T19,1.0,,,,,,0.0
Perennial Real Estate Holdings Ltd.,40S,1.0,,,,,,0.0
Yuuzoo Corp Ltd.,AFC,1.0,,,,,,0.0
Innopac Holdings Ltd.,I26,1.0,,,,,,0.0
Manufacturing Integration Technology Ltd.,M11,1.0,,,,,,0.0
Synagie Corp. Ltd.,V2Y,1.0,,,,,,0.0
Singapore Telecommunications Ltd.,Z74,1.0,,,,,,0.0
